…
Invalid values for disease association: 
# A tibble: 4 × 2
  Attribute_group     Attribute               
  <chr>               <chr>                   
1 disease association endocarditis, septicemia
2 disease association meningitis, septicemia  
3 disease association septicemia , Arthritis  
4 disease association urlnary tract infection 

Invalid values for growth medium: 
# A tibble: 2,191 × 2
   Attribute_group Attribute                                                                           
   <chr>           <chr>                                                                               
 1 growth medium   NUTRIENT AGAR (DSMZ Medium 1)                                                       
 2 growth medium   Marine agar (MA)                                                                    
 3 growth medium   R2A MEDIUM (DSMZ Medium 830)                                                        
 4 growth medium   ACETIVIBRIO MEDIUM (DSMZ Medium 122)                                                
 5 growth medium   Zobell marine agar (ZMA)                                                            
 6 growth medium   MEDIUM 1 - for Acetobacter, Azotobacter, Gluconobacter, Gluconacetobacter, Mesorhiz…
 7 growth medium   MEDIUM 85 - for Abiotrophia                                                         
 8 growth medium   GS2 agar plates                                                                     
 9 growth medium   TRYPTICASE SOY YEAST EXTRACT MEDIUM (DSMZ Medium 92)                                
10 growth medium   MLO agar                                                                            
# ℹ 2,181 more rows
# ℹ Use `print(n = ...)` to see more rows
…
